#fields,ts,uid,id.orig_h,id.orig_p,id.resp_h,id.resp_p,proto,service,duration,orig_bytes,resp_bytes,conn_state,local_orig,local_resp,missed_bytes,history,orig_pkts,orig_ip_bytes,resp_pkts,resp_ip_bytes,tunnel_parents   label   detailed-label
1562159819,CUg3u41D8SwgQw1Job,0.0.0.0,68,255.255.255.255,67,udp,dhcp,30.004642,8768,0,S0,-,-,0,D,16,9216,0,0,-   benign   -,
1562159849,CUpk9Y381SJuOHyK2d,255.255.255.255,68,192.168.1.1,67,udp,dhcp,0.004564,0,3900,SHR,-,-,0,^d,0,0,13,4264,-   benign   -,
1562159954,CC5CQA3Ptzma7a0by4,fe80::5bcc:698e:39d5:cdf,5353,ff02::fb,5353,udp,dns,3.948539,876,0,S0,-,-,0,D,6,1164,0,0,-   benign   -,
1562159998,C3sgcmfvNzjNoY0Kd,fe80::5bcc:698e:39d5:cdf,5353,ff02::fb,5353,udp,dns,3.768179,876,0,S0,-,-,0,D,6,1164,0,0,-   benign   -,
1562160024,CJVaCgoBTEsu0jjDi,fe80::4eef:c0ff:fe27:561e,5353,ff02::fb,5353,udp,dns,0.000114,451,0,S0,-,-,0,D,11,979,0,0,-   benign   -,
1562160044,ClkJUN2T3u1rQok33l,fe80::5bcc:698e:39d5:cdf,5353,ff02::fb,5353,udp,dns,3.756296,876,0,S0,-,-,0,D,6,1164,0,0,-   benign   -,
1562160089,CzhXjz2LvHq25CHro7,fe80::5bcc:698e:39d5:cdf,5353,ff02::fb,5353,udp,dns,3.715573,876,0,S0,-,-,0,D,6,1164,0,0,-   benign   -,
1562159952,C1zaLu61Bo5oe9wJk,::,143,ff02::16,0,icmp,-,180.863984,600,0,OTH,-,-,0,-,14,1384,0,0,-   benign   -,
1562159953,CR2oJeDijrObrIjN9,::,135,ff02::1:ffd5:cdf,136,icmp,-,134.816029,96,0,OTH,-,-,0,-,4,288,0,0,-   benign   -,
1562159954,ChRng92xzW1js6e2Ik,fe80::5bcc:698e:39d5:cdf,133,ff02::2,134,icmp,-,135.000174,0,0,OTH,-,-,0,-,4,192,0,0,-   benign   -,
1562159954,CU8YON36dOJ9SJ3VYa,fe80::5bcc:698e:39d5:cdf,143,ff02::16,0,icmp,-,135.487944,400,0,OTH,-,-,0,-,16,1296,0,0,-   benign   -,
1562159952,C7gDkZ19d7UhgM5Rxc,0.0.0.0,68,255.255.255.255,67,udp,dhcp,178.246691,6900,0,S0,-,-,0,D,23,7544,0,0,-   benign   -,
1562160303,Cmm6Jp4Y9PM8fhUnp1,192.168.1.158,4096,192.168.1.1,53,udp,dns,2.052335,160,498,SF,-,-,0,Dd,4,272,4,610,-   benign   -,
1562160308,C32qne49bZy0akUup,192.168.4.2,41551,192.168.4.1,80,tcp,-,0.000006,0,0,SHR,-,-,0,^f,0,0,2,80,-   benign   -,
1562160320,CgptFR3EW8pPc4QmRi,192.168.4.2,41551,192.168.4.1,80,tcp,-,0.000006,0,0,SHR,-,-,0,^f,0,0,2,80,-   benign   -,
1562160344,CcZBV32tjGx8FDf467,192.168.4.2,41551,192.168.4.1,80,tcp,-,0.000006,0,0,SHR,-,-,0,^f,0,0,2,80,-   benign   -,
1562160292,C7zF7p3og92UyWNPe8,::,135,ff02::1:ff67:dff2,136,icmp,-,0.000052,176,0,OTH,-,-,0,-,11,704,0,0,-   benign   -,
1562160292,Ca908W3YrAjYFiUmGh,::,143,ff02::16,0,icmp,-,0.000042,200,0,OTH,-,-,0,-,10,760,0,0,-   benign   -,
1562160294,CC9yzZ07fl3rOTMIg,fe80::6a05:71ff:fe67:dff2,143,ff02::16,0,icmp,-,0.000041,200,0,OTH,-,-,0,-,10,760,0,0,-   benign   -,
1562160301,CHgblw4FHCF7bzKkFa,192.168.1.158,68,192.168.1.1,67,udp,dhcp,0.82953,0,1800,SHR,-,-,0,^d,0,0,6,1968,-   benign   -,
1562160292,C4lfT92TdIOeiebVU,0.0.0.0,68,255.255.255.255,67,udp,dhcp,9.399944,7428,0,S0,-,-,0,D,24,8100,0,0,-   benign   -,
1562160303,C8B5l022V75zPX8lA9,192.168.1.1,8,192.168.1.158,0,icmp,-,0.00671,40,40,OTH,-,-,0,-,2,96,2,96,-   benign   -,
1562160303,ChvhUj1PHAT86ISTWj,192.168.1.158,4097,78.46.102.180,123,udp,-,0.019494,96,96,SF,-,-,0,Dd,2,152,2,152,-   benign   -,
1562160292,CrmLCrlPS1jQr9pna,fe80::6a05:71ff:fe67:dff2,133,ff02::2,134,icmp,-,13.017631,792,0,OTH,-,-,0,-,99,5544,0,0,-   benign   -,
1562160393,CYBMKp4pB8gSrVdQIl,192.168.4.2,41551,192.168.4.1,80,tcp,-,0.000006,0,0,SHR,-,-,0,^f,0,0,2,80,-   benign   -,
1562160434,CIlMKW3wrntxuK3bA8,fe80::5bcc:698e:39d5:cdf,5353,ff02::fb,5353,udp,dns,3.959121,876,0,S0,-,-,0,D,6,1164,0,0,-   benign   -,
1562160491,Cw8Fcm4zJ6K34shgb5,192.168.4.2,41551,192.168.4.1,80,tcp,-,0.000014,0,0,SHR,-,-,0,^f,0,0,2,80,-   benign   -,
1562160479,CTiY9X1eSYGBzAtDBi,fe80::5bcc:698e:39d5:cdf,5353,ff02::fb,5353,udp,dns,3.774344,876,0,S0,-,-,0,D,6,1164,0,0,-   benign   -,
1562160524,C1zDX73DcQoJ0lEt81,fe80::5bcc:698e:39d5:cdf,5353,ff02::fb,5353,udp,dns,3.893012,876,0,S0,-,-,0,D,6,1164,0,0,-   benign   -,
1562160569,COy2ND3Nhm7GFoWnT2,fe80::5bcc:698e:39d5:cdf,5353,ff02::fb,5353,udp,dns,4.180049,876,0,S0,-,-,0,D,6,1164,0,0,-   benign   -,
1562160588,Cth0RR1SELlqe3dVf,192.168.4.2,41551,192.168.4.1,80,tcp,-,0.000015,0,0,SHR,-,-,0,^f,0,0,2,80,-   benign   -,
1562160433,C4TsLg32JBkXLnHIdg,::,135,ff02::1:ffd5:cdf,136,icmp,-,134.720015,96,0,OTH,-,-,0,-,4,288,0,0,-   benign   -,
1562160434,Cco1J82lUAkKOna9F2,fe80::5bcc:698e:39d5:cdf,133,ff02::2,134,icmp,-,134.983429,0,0,OTH,-,-,0,-,4,192,0,0,-   benign   -,
1562160434,CkRECc1rF9SsCGTtZ4,fe80::5bcc:698e:39d5:cdf,143,ff02::16,0,icmp,-,135.583945,400,0,OTH,-,-,0,-,16,1296,0,0,-   benign   -,
1562160432,Ci7keG3lXgguT1JF43,0.0.0.0,68,255.255.255.255,67,udp,dhcp,171.633045,6900,0,S0,-,-,0,D,23,7544,0,0,-   benign   -,
1562160432,CBeFI84jFNzboM2oNa,::,143,ff02::16,0,icmp,-,180.707971,580,0,OTH,-,-,0,-,13,1308,0,0,-   benign   -,
1562160686,CiUp1B1o5zZVj9AUEb,192.168.4.2,41551,192.168.4.1,80,tcp,-,0.000006,0,0,SHR,-,-,0,^f,0,0,2,80,-   benign   -,
1562160784,CCc3Sy1qU7bCxK6W1g,192.168.4.2,41551,192.168.4.1,80,tcp,-,0.000006,0,0,SHR,-,-,0,^f,0,0,2,80,-   benign   -,
1562160881,CYbQTMGQA7PsOFk29,192.168.4.2,41551,192.168.4.1,80,tcp,-,0.000007,0,0,SHR,-,-,0,^f,0,0,2,80,-   benign   -,
1562160892,Ciyf981SRHO3bhQYTe,fe80::18:e207:b314:641b,5353,ff02::fb,5353,udp,dns,0.000089,495,0,S0,-,-,0,D,11,1023,0,0,-   benign   -,
1562160914,C5wQm22lC1dlbD9gc8,fe80::5bcc:698e:39d5:cdf,5353,ff02::fb,5353,udp,dns,4.080298,876,0,S0,-,-,0,D,6,1164,0,0,-   benign   -,
1562160958,CoaglKnqBrhLW79nh,fe80::5bcc:698e:39d5:cdf,5353,ff02::fb,5353,udp,dns,4.104848,876,0,S0,-,-,0,D,6,1164,0,0,-   benign   -,
1562161004,CGbX5grmRPtAurLE9,fe80::5bcc:698e:39d5:cdf,5353,ff02::fb,5353,udp,dns,3.947094,876,0,S0,-,-,0,D,6,1164,0,0,-   benign   -,
1562161023,Ca0fVEokTOdzmHThk,fe80::18:e207:b314:641b,5353,ff02::fb,5353,udp,dns,0.000101,979,0,S0,-,-,0,D,11,1507,0,0,-   benign   -,
1562161049,CIClGdlS6Ch3OvmN,fe80::5bcc:698e:39d5:cdf,5353,ff02::fb,5353,udp,dns,4.074816,876,0,S0,-,-,0,D,6,1164,0,0,-   benign   -,
1562160913,CX4PyeJTA7lwwfIpg,::,135,ff02::1:ffd5:cdf,136,icmp,-,134.880125,96,0,OTH,-,-,0,-,4,288,0,0,-   benign   -,
1562160914,C70HNT19ubTE76Jum9,fe80::5bcc:698e:39d5:cdf,133,ff02::2,134,icmp,-,134.91912,0,0,OTH,-,-,0,-,4,192,0,0,-   benign   -,
1562160914,CdZvK63lw5bkDBgfQl,fe80::5bcc:698e:39d5:cdf,143,ff02::16,0,icmp,-,135.583937,400,0,OTH,-,-,0,-,16,1296,0,0,-   benign   -,
1562160912,CSvMZfoQvf7b51DHh,0.0.0.0,68,255.255.255.255,67,udp,dhcp,175.769442,7200,0,S0,-,-,0,D,24,7872,0,0,-   benign   -,
1562160912,CfAd723AwXS3rpjey6,::,143,ff02::16,0,icmp,-,179.944016,600,0,OTH,-,-,0,-,14,1384,0,0,-   benign   -,
1562161198,Cg0AkAmG5mOXuOlW9,fe80::18:e207:b314:641b,5353,ff02::fb,5353,udp,dns,0.000092,561,0,S0,-,-,0,D,11,1089,0,0,-   benign   -,
1562161198,Cas4c24ag6jREfGOSh,fe80::211:32ff:fe8d:ffe2,5353,ff02::fb,5353,udp,dns,0.000052,1316,0,S0,-,-,0,D,7,1652,0,0,-   benign   -,
1562161394,CLUgv63LGp4nbeb0Sj,fe80::5bcc:698e:39d5:cdf,5353,ff02::fb,5353,udp,dns,4.022138,876,0,S0,-,-,0,D,6,1164,0,0,-   benign   -,
1562161438,CIfdh9vGIWwHiPUP1,fe80::5bcc:698e:39d5:cdf,5353,ff02::fb,5353,udp,dns,3.756469,876,0,S0,-,-,0,D,6,1164,0,0,-   benign   -,
1562161484,CngtZn15OZGgDgHdnh,fe80::5bcc:698e:39d5:cdf,5353,ff02::fb,5353,udp,dns,4.07663,876,0,S0,-,-,0,D,6,1164,0,0,-   benign   -,
1562161529,COOtOv3TDj16xHLKO4,fe80::5bcc:698e:39d5:cdf,5353,ff02::fb,5353,udp,dns,4.141261,876,0,S0,-,-,0,D,6,1164,0,0,-   benign   -,
1562161393,CG0bgj4yO0GxKOL7ja,::,135,ff02::1:ffd5:cdf,136,icmp,-,135.423985,96,0,OTH,-,-,0,-,4,288,0,0,-   benign   -,
1562161394,CznoKI2vvp0cobIb9g,fe80::5bcc:698e:39d5:cdf,133,ff02::2,134,icmp,-,135.056485,0,0,OTH,-,-,0,-,4,192,0,0,-   benign   -,
1562161394,CQBdAs1nwXXK6sRm4e,fe80::5bcc:698e:39d5:cdf,143,ff02::16,0,icmp,-,136.351937,400,0,OTH,-,-,0,-,16,1296,0,0,-   benign   -,
1562161392,C9b52A3QyHTiQGnfOe,0.0.0.0,68,255.255.255.255,67,udp,dhcp,171.314691,6900,0,S0,-,-,0,D,23,7544,0,0,-   benign   -,
1562161392,COyRvc3DFz7h38ji0g,::,143,ff02::16,0,icmp,-,180.411992,600,0,OTH,-,-,0,-,14,1384,0,0,-   benign   -,
1562161874,CEVR3R3NsdzjtBzk91,fe80::5bcc:698e:39d5:cdf,5353,ff02::fb,5353,udp,dns,4.094092,876,0,S0,-,-,0,D,6,1164,0,0,-   benign   -,
1562161919,Cae93YKyzPHuiiIBk,fe80::5bcc:698e:39d5:cdf,5353,ff02::fb,5353,udp,dns,3.712268,876,0,S0,-,-,0,D,6,1164,0,0,-   benign   -,
1562161964,CyC0Xo2qcbpVsYNtQh,fe80::5bcc:698e:39d5:cdf,5353,ff02::fb,5353,udp,dns,3.874202,876,0,S0,-,-,0,D,6,1164,0,0,-   benign   -,
1562162009,CyQJpaplOnFy3HoA2,fe80::5bcc:698e:39d5:cdf,5353,ff02::fb,5353,udp,dns,3.865345,876,0,S0,-,-,0,D,6,1164,0,0,-   benign   -,
1562161873,Cm8Omk3DBI4MLQ4xX7,::,135,ff02::1:ffd5:cdf,136,icmp,-,135.007999,96,0,OTH,-,-,0,-,4,288,0,0,-   benign   -,
1562161874,C44s1b1NlKxOPRgdH7,fe80::5bcc:698e:39d5:cdf,133,ff02::2,134,icmp,-,134.999865,0,0,OTH,-,-,0,-,4,192,0,0,-   benign   -,
1562161874,CuSTrftLmfJddWp7f,fe80::5bcc:698e:39d5:cdf,143,ff02::16,0,icmp,-,135.423971,400,0,OTH,-,-,0,-,16,1296,0,0,-   benign   -,
1562161872,Czx62I1xWbi419lua5,0.0.0.0,68,255.255.255.255,67,udp,dhcp,173.328155,6000,0,S0,-,-,0,D,20,6560,0,0,-   benign   -,
1562161872,CGy9dUBkOlZcCDGt4,::,143,ff02::16,0,icmp,-,180.75197,580,0,OTH,-,-,0,-,13,1308,0,0,-   benign   -,
1562162354,CNHOLW3TTtpCbg9yWj,fe80::5bcc:698e:39d5:cdf,5353,ff02::fb,5353,udp,dns,1.789118,736,0,S0,-,-,0,D,5,976,0,0,-   benign   -,
1562162399,COgE8H2PfmceSaKUll,fe80::5bcc:698e:39d5:cdf,5353,ff02::fb,5353,udp,dns,3.849954,876,0,S0,-,-,0,D,6,1164,0,0,-   benign   -,
1562162443,C3UUed2MPLhSak5iqb,fe80::5bcc:698e:39d5:cdf,5353,ff02::fb,5353,udp,dns,3.780424,876,0,S0,-,-,0,D,6,1164,0,0,-   benign   -,
1562162489,CHg49X3mJAxO2YECy8,fe80::5bcc:698e:39d5:cdf,5353,ff02::fb,5353,udp,dns,3.969944,876,0,S0,-,-,0,D,6,1164,0,0,-   benign   -,
1562162353,CTibnd3tfGGrWzzjqg,::,135,ff02::1:ffd5:cdf,136,icmp,-,134.848031,96,0,OTH,-,-,0,-,4,288,0,0,-   benign   -,
1562162354,CqX9XZ29Fv4nRPjR1j,fe80::5bcc:698e:39d5:cdf,133,ff02::2,134,icmp,-,134.887392,0,0,OTH,-,-,0,-,4,192,0,0,-   benign   -,
1562162354,CcESCC3yf0U8VXvsC1,fe80::5bcc:698e:39d5:cdf,143,ff02::16,0,icmp,-,135.327928,400,0,OTH,-,-,0,-,16,1296,0,0,-   benign   -,
1562162352,CyRYguPTlFNBfo3p2,0.0.0.0,68,255.255.255.255,67,udp,dhcp,162.155331,6600,0,S0,-,-,0,D,22,7216,0,0,-   benign   -,
1562162352,CaMhM34lijQnucVax6,::,143,ff02::16,0,icmp,-,180.28399,580,0,OTH,-,-,0,-,13,1308,0,0,-   benign   -,
1562162834,CHwTz634yndMS9rvnc,fe80::5bcc:698e:39d5:cdf,5353,ff02::fb,5353,udp,dns,4.058887,876,0,S0,-,-,0,D,6,1164,0,0,-   benign   -,
1562162879,C91EPB4ufLDCjb2GL3,fe80::5bcc:698e:39d5:cdf,5353,ff02::fb,5353,udp,dns,3.819744,876,0,S0,-,-,0,D,6,1164,0,0,-   benign   -,
1562162924,CrQhCs2RiwFTwB6Gmj,fe80::5bcc:698e:39d5:cdf,5353,ff02::fb,5353,udp,dns,4.040004,876,0,S0,-,-,0,D,6,1164,0,0,-   benign   -,
1562162969,C0BKshIQPepYMpUHg,fe80::5bcc:698e:39d5:cdf,5353,ff02::fb,5353,udp,dns,3.876546,876,0,S0,-,-,0,D,6,1164,0,0,-   benign   -,
1562162833,CVs1d63o880gITQSXg,::,135,ff02::1:ffd5:cdf,136,icmp,-,134.687932,96,0,OTH,-,-,0,-,4,288,0,0,-   benign   -,
1562162834,CsagGJ3GSNRBdGSCqh,fe80::5bcc:698e:39d5:cdf,133,ff02::2,134,icmp,-,134.791482,0,0,OTH,-,-,0,-,4,192,0,0,-   benign   -,
1562162834,Cksole3SAIe9Zjmb99,fe80::5bcc:698e:39d5:cdf,143,ff02::16,0,icmp,-,135.423892,400,0,OTH,-,-,0,-,16,1296,0,0,-   benign   -,
1562162832,CHm9t71IV6rPSsLxOa,0.0.0.0,68,255.255.255.255,67,udp,dhcp,175.549635,6900,0,S0,-,-,0,D,23,7544,0,0,-   benign   -,
1562162832,ChLUTJ1LB2irkeHX9d,::,143,ff02::16,0,icmp,-,180.395996,600,0,OTH,-,-,0,-,14,1384,0,0,-   benign   -,
1562163314,CUXay1L3jaXBNpu3l,fe80::5bcc:698e:39d5:cdf,5353,ff02::fb,5353,udp,dns,3.942575,876,0,S0,-,-,0,D,6,1164,0,0,-   benign   -,
1562163358,CVzDpnBUEc0jYt5Gb,fe80::5bcc:698e:39d5:cdf,5353,ff02::fb,5353,udp,dns,3.87375,876,0,S0,-,-,0,D,6,1164,0,0,-   benign   -,
1562163403,CFMvBu4GRQoyE17WU,fe80::5bcc:698e:39d5:cdf,5353,ff02::fb,5353,udp,dns,4.026406,876,0,S0,-,-,0,D,6,1164,0,0,-   benign   -,
1562163449,ChJEc92Rw5yEWssAYb,fe80::5bcc:698e:39d5:cdf,5353,ff02::fb,5353,udp,dns,4.164705,876,0,S0,-,-,0,D,6,1164,0,0,-   benign   -,
1562163313,Cbb8Sk2BXAUJXviJTf,::,135,ff02::1:ffd5:cdf,136,icmp,-,135.263999,96,0,OTH,-,-,0,-,4,288,0,0,-   benign   -,
1562163314,CWKWJw3FkeQK4h0NYf,fe80::5bcc:698e:39d5:cdf,133,ff02::2,134,icmp,-,135.024997,0,0,OTH,-,-,0,-,4,192,0,0,-   benign   -,
1562163314,Ctcdic3UAy2xy1Iz31,fe80::5bcc:698e:39d5:cdf,143,ff02::16,0,icmp,-,136.127965,400,0,OTH,-,-,0,-,16,1296,0,0,-   benign   -,
1562163312,CR0z9E4SyM53cXGv65,0.0.0.0,68,255.255.255.255,67,udp,dhcp,168.015512,6000,0,S0,-,-,0,D,20,6560,0,0,-   benign   -,
1562163312,CJF7JB4xCKTIj2DMth,::,143,ff02::16,0,icmp,-,180.623973,580,0,OTH,-,-,0,-,13,1308,0,0,-   benign   -,
1562163625,ClbMDh4to0TkoGLnqj,fe80::4eef:c0ff:fe27:561e,5353,ff02::fb,5353,udp,dns,0.000076,451,0,S0,-,-,0,D,11,979,0,0,-   benign   -,
1562163794,ClUijX2flxVm5utQE8,fe80::5bcc:698e:39d5:cdf,5353,ff02::fb,5353,udp,dns,3.933981,876,0,S0,-,-,0,D,6,1164,0,0,-   benign   -,
1562163839,C2JUeA4miclNY1UpIj,fe80::5bcc:698e:39d5:cdf,5353,ff02::fb,5353,udp,dns,3.854194,876,0,S0,-,-,0,D,6,1164,0,0,-   benign   -,
1562163884,CAEqfK8VwynihQujj,fe80::5bcc:698e:39d5:cdf,5353,ff02::fb,5353,udp,dns,4.163531,876,0,S0,-,-,0,D,6,1164,0,0,-   benign   -,
1562163929,CZ37v51PXkfIDFnYUg,fe80::5bcc:698e:39d5:cdf,5353,ff02::fb,5353,udp,dns,4.174698,876,0,S0,-,-,0,D,6,1164,0,0,-   benign   -,
1562163961,CQtM5g43dRYrAWVo85,192.168.1.158,4096,192.168.1.1,53,udp,dns,0.003738,156,412,SF,-,-,0,Dd,4,268,4,524,-   benign   -,
1562163793,CnCKfI32EOSCagpFFf,::,135,ff02::1:ffd5:cdf,136,icmp,-,134.848013,96,0,OTH,-,-,0,-,4,288,0,0,-   benign   -,
1562163794,CUr1Zx4BvsZhINPA8a,fe80::5bcc:698e:39d5:cdf,133,ff02::2,134,icmp,-,134.919447,0,0,OTH,-,-,0,-,4,192,0,0,-   benign   -,
1562163794,CXuGjS23YRZ4sIHOYb,fe80::5bcc:698e:39d5:cdf,143,ff02::16,0,icmp,-,135.055936,400,0,OTH,-,-,0,-,16,1296,0,0,-   benign   -,
1562163961,CYCRei2M3ufMTZcb6g,192.168.1.158,4097,151.80.19.218,123,udp,-,0.030243,96,96,SF,-,-,0,Dd,2,152,2,152,-   benign   -,
1562163792,CmiSMo3P0k7vUWWyTl,0.0.0.0,68,255.255.255.255,67,udp,dhcp,172.789614,6300,0,S0,-,-,0,D,21,6888,0,0,-   benign   -,
1562163792,Cs0qgO1hLBIA8ZokMg,::,143,ff02::16,0,icmp,-,180.803993,580,0,OTH,-,-,0,-,13,1308,0,0,-   benign   -,
1562164273,CjJjSdYBsPXVsGnW7,fe80::5bcc:698e:39d5:cdf,5353,ff02::fb,5353,udp,dns,3.978091,876,0,S0,-,-,0,D,6,1164,0,0,-   benign   -,
1562164319,CFmgrR2zfrpYCj3mjg,fe80::5bcc:698e:39d5:cdf,5353,ff02::fb,5353,udp,dns,3.890837,876,0,S0,-,-,0,D,6,1164,0,0,-   benign   -,
1562164363,CSxQPMcX74Ku8VtA2,fe80::5bcc:698e:39d5:cdf,5353,ff02::fb,5353,udp,dns,3.869429,876,0,S0,-,-,0,D,6,1164,0,0,-   benign   -,
1562164409,CZzQfx3IPDT1Zc79Zh,fe80::5bcc:698e:39d5:cdf,5353,ff02::fb,5353,udp,dns,3.934943,876,0,S0,-,-,0,D,6,1164,0,0,-   benign   -,
1562164272,CmibZE3x2uv04bQ5a7,::,135,ff02::1:ffd5:cdf,136,icmp,-,135.856688,96,0,OTH,-,-,0,-,4,288,0,0,-   benign   -,
1562164273,CTr1AG2Wxt7NvGYyJh,fe80::5bcc:698e:39d5:cdf,133,ff02::2,134,icmp,-,135.868948,0,0,OTH,-,-,0,-,4,192,0,0,-   benign   -,
1562164273,CjQWooVzXlGlpwS9a,fe80::5bcc:698e:39d5:cdf,143,ff02::16,0,icmp,-,136.447958,400,0,OTH,-,-,0,-,16,1296,0,0,-   benign   -,
1562164492,CFs1dW2sfcTCvfu68l,fe80::18:e207:b314:641b,5353,ff02::fb,5353,udp,dns,0.000093,495,0,S0,-,-,0,D,11,1023,0,0,-   benign   -,
1562164272,CIrQL81Z78mqEz7MZj,0.0.0.0,68,255.255.255.255,67,udp,dhcp,174.95001,7200,0,S0,-,-,0,D,24,7872,0,0,-   benign   -,
1562164272,CRmC6OJWt9AMjF5ra,::,143,ff02::16,0,icmp,-,180.327992,600,0,OTH,-,-,0,-,14,1384,0,0,-   benign   -,
1562164623,CaTkXh2seT0NXx4Qtg,fe80::18:e207:b314:641b,5353,ff02::fb,5353,udp,dns,0.000095,979,0,S0,-,-,0,D,11,1507,0,0,-   benign   -,
1562164754,CQvPbq1jyfEfb2bLJh,fe80::5bcc:698e:39d5:cdf,5353,ff02::fb,5353,udp,dns,4.192472,876,0,S0,-,-,0,D,6,1164,0,0,-   benign   -,
1562164798,CgXCDk2L4MsMdYuKo9,fe80::18:e207:b314:641b,5353,ff02::fb,5353,udp,dns,0.0001,561,0,S0,-,-,0,D,11,1089,0,0,-   benign   -,
1562164798,ChH89F2587AqrZOgw1,fe80::211:32ff:fe8d:ffe2,5353,ff02::fb,5353,udp,dns,0.000099,1316,0,S0,-,-,0,D,7,1652,0,0,-   benign   -,
1562164798,CJsqFF39a49wClB85a,fe80::5bcc:698e:39d5:cdf,5353,ff02::fb,5353,udp,dns,3.799446,876,0,S0,-,-,0,D,6,1164,0,0,-   benign   -,
1562160305,Cgrd0NaSlBrfvYz9f,192.168.1.158,10366,18.195.134.106,443,tcp,ssl,4537.403134,179107,464134,S1,-,-,0,ShDadAttt,2702,466302,3137,1075416,-   benign   -,
1562164752,CbiAr234EfpzQInxbg,0.0.0.0,68,255.255.255.255,67,udp,dhcp,90.034713,3300,0,S0,-,-,0,D,11,3608,0,0,-   benign   -,
1562164752,CqEhZf1lYmVokqECn3,::,143,ff02::16,0,icmp,-,90.39997,340,0,OTH,-,-,0,-,9,844,0,0,-   benign   -,
1562164753,Cr5vKO1CGfMQwFp22c,::,135,ff02::1:ffd5:cdf,136,icmp,-,89.82403,72,0,OTH,-,-,0,-,3,216,0,0,-   benign   -,
1562164754,CQ5cJ21U9NUbUWIznd,fe80::5bcc:698e:39d5:cdf,143,ff02::16,0,icmp,-,45.215915,200,0,OTH,-,-,0,-,8,648,0,0,-   benign   -,
1562164754,CjD5ve2qwxfFtvd4zl,fe80::5bcc:698e:39d5:cdf,133,ff02::2,134,icmp,-,44.242223,0,0,OTH,-,-,0,-,2,96,0,0,-   benign   -,
